{
  "__guid": "9f832399-4887-46b0-8f21-2ee284f538e2",
  "GameObjects": [
    {
      "__guid": "372e9de4-6257-4012-a4b9-25fbf1a8e85e",
      "Name": "Screen (2)",
      "Enabled": true,
      "NetworkMode": 2,
      "NetworkInterpolation": true,
      "Components": [
        {
          "__type": "Sandbox.ScreenPanel",
          "__guid": "ed268dc9-04ff-403f-a7be-60ed0afca32d",
          "AutoScreenScale": true,
          "Opacity": 1,
          "Scale": 1,
          "ZIndex": 100
        },
        {
          "__type": "Screen",
          "__guid": "2536011b-0a12-4082-b170-c9cd72ff5aa2",
          "display": false,
          "DisplayKeyMapping": true,
          "LoadingScene": "scenes/loading_menu.scene",
          "SceneDescription": "",
          "SceneTitle": "Player"
        }
      ]
    },
    {
      "__guid": "bfc59c12-1ed2-4f91-8956-a95a315eac3c",
      "Name": "Sun",
      "Rotation": "-0.0729315,0.4822396,0.1305433,0.8631827",
      "Tags": "light_directional,light",
      "Enabled": true,
      "NetworkMode": 2,
      "NetworkInterpolation": true,
      "Components": [
        {
          "__type": "Sandbox.DirectionalLight",
          "__guid": "45f76bc2-9ba5-40f9-9f33-01574d803ca3",
          "FogMode": "Enabled",
          "FogStrength": 1,
          "LightColor": "0.94419,0.97767,1,1",
          "Shadows": true,
          "SkyColor": "0.2532,0.32006,0.35349,1"
        }
      ]
    },
    {
      "__guid": "00344a8c-fa5e-45ae-b12a-10bb781a1dc3",
      "Name": "2D Skybox",
      "Tags": "skybox",
      "Enabled": true,
      "NetworkMode": 2,
      "NetworkInterpolation": true,
      "Components": [
        {
          "__type": "Sandbox.SkyBox2D",
          "__guid": "fe9b8d4d-3e8c-4cb6-b469-8e192d79e615",
          "SkyMaterial": "materials/error.vmat",
          "Tint": "1,1,1,1"
        },
        {
          "__type": "Sandbox.EnvmapProbe",
          "__guid": "8bb3dd31-c1ba-47e8-948a-635e45feed3d",
          "Texture": "textures/cubemaps/default2.vtex",
          "Bounds": {
            "Mins": "-512,-512,-512",
            "Maxs": "512,512,512"
          },
          "DelayBetweenUpdates": 0.1,
          "Feathering": 0.02,
          "FrameInterval": 5,
          "MaxDistance": 512,
          "Projection": "Sphere",
          "RenderDynamically": false,
          "TintColor": "1,1,1,1",
          "UpdateStrategy": "OnEnabled",
          "ZFar": 4096,
          "ZNear": 16
        }
      ]
    },
    {
      "__guid": "8d293bc4-1f02-441b-8a9d-6df10874dde4",
      "Name": "Plane (1)",
      "Position": "20.09176,0,0",
      "Scale": "5,5,5",
      "Enabled": true,
      "NetworkMode": 2,
      "NetworkInterpolation": true,
      "Components": [
        {
          "__type": "Sandbox.ModelRenderer",
          "__guid": "2c81085c-cedb-4b75-bf84-e267c1739cf7",
          "BodyGroups": 18446744073709551615,
          "MaterialOverride": "materials/default.vmat",
          "Model": "models/dev/plane.vmdl",
          "RenderType": "On",
          "Tint": "0.39546,0.51163,0.27128,1"
        },
        {
          "__type": "Sandbox.BoxCollider",
          "__guid": "be514501-ca17-4e65-a6a4-ad1b02b18707",
          "Center": "0,0,-5",
          "IsTrigger": false,
          "Scale": "100,100,10",
          "Static": false
        }
      ]
    },
    {
      "__guid": "c33a6bdf-1482-4075-973e-970ee4e9211d",
      "Name": "Plane (2)",
      "Position": "-296.5525,0,101.7965",
      "Rotation": "0,0.7071068,0,0.7071068",
      "Scale": "5,5,5",
      "Enabled": true,
      "NetworkMode": 2,
      "NetworkInterpolation": true,
      "Components": [
        {
          "__type": "Sandbox.ModelRenderer",
          "__guid": "7876769a-fdd5-4177-89c1-4648293eeaac",
          "BodyGroups": 18446744073709551615,
          "MaterialOverride": "materials/default.vmat",
          "Model": "models/dev/plane.vmdl",
          "RenderType": "On",
          "Tint": "0.39546,0.51163,0.27128,1"
        },
        {
          "__type": "Sandbox.BoxCollider",
          "__guid": "4d960f78-2c13-416f-86e6-520564289872",
          "Center": "0,0,-5",
          "IsTrigger": false,
          "Scale": "100,100,10",
          "Static": false
        }
      ]
    },
    {
      "__guid": "6ad70641-3c6c-4402-9c85-9a4969af4764",
      "Name": "Plane",
      "Position": "20.09176,0,0",
      "Scale": "11.9,5,5",
      "Enabled": true,
      "NetworkMode": 2,
      "NetworkInterpolation": true,
      "Components": [
        {
          "__type": "Sandbox.ModelRenderer",
          "__guid": "8093fe04-ad0b-4b58-8aa4-d9557a27501b",
          "BodyGroups": 18446744073709551615,
          "MaterialOverride": "materials/default.vmat",
          "Model": "models/dev/plane.vmdl",
          "RenderType": "On",
          "Tint": "0.39546,0.51163,0.27128,1"
        },
        {
          "__type": "Sandbox.BoxCollider",
          "__guid": "7f3d3b6e-90bc-4e8a-a162-f2a6cb9b3cb1",
          "Center": "0,0,-5",
          "IsTrigger": false,
          "Scale": "100,100,10",
          "Static": false
        }
      ]
    },
    {
      "__guid": "b8e94e80-0875-43cb-86a1-9f0066c4d8c9",
      "Name": "playercomponent",
      "Position": "-43.42188,-77.57005,91.97895",
      "Tags": "player",
      "Enabled": true,
      "NetworkMode": 2,
      "NetworkInterpolation": true,
      "Components": [
        {
          "__type": "Sandbox.CharacterController",
          "__guid": "d1c1e7a0-24dc-442c-906d-dbd4080b387a",
          "Acceleration": 10,
          "Bounciness": 0.3,
          "GroundAngle": 45,
          "Height": 64,
          "IgnoreLayers": "",
          "Radius": 9.49,
          "StepHeight": 18
        },
        {
          "__type": "Sandbox.Citizen.CitizenAnimationHelper",
          "__guid": "17fb7c63-73ba-49b4-9c5c-e530c4f48158",
          "BodyWeight": 1,
          "EyesWeight": 1,
          "HeadWeight": 1,
          "LookAtEnabled": false,
          "Target": {
            "_type": "component",
            "component_id": "1b5f98e7-6bd7-4e9d-b003-2923eaa0dd31",
            "go": "27f60420-6092-4841-81a3-c897f3c4d0a6",
            "component_type": "SkinnedModelRenderer"
          }
        },
        {
          "__type": "Sandbox.CapsuleCollider",
          "__guid": "e47910b0-57af-49e3-9b99-261bf383eb93",
          "End": "0,0,55.80003",
          "IsTrigger": false,
          "Radius": 15.600017,
          "Start": "0,0,5.800001",
          "Static": false
        },
        {
          "__type": "CameraMovementComponent",
          "__guid": "5d58d76c-f6d0-4a1d-8df1-a9aa87d59390",
          "Body": {
            "_type": "gameobject",
            "go": "27f60420-6092-4841-81a3-c897f3c4d0a6"
          },
          "CameraPosition": "0,0,0",
          "EyePosition": "0,0,63.19998",
          "type": "ThirdPersonSbox"
        },
        {
          "__type": "PlayerMovement",
          "__guid": "d7eca96b-e772-4a93-bdf7-5c0db445deb6",
          "pounched": false,
          "characterController": {
            "_type": "component",
            "component_id": "d1c1e7a0-24dc-442c-906d-dbd4080b387a",
            "go": "b8e94e80-0875-43cb-86a1-9f0066c4d8c9",
            "component_type": "CharacterController"
          },
          "citizenAnimationHelper": {
            "_type": "component",
            "component_id": "17fb7c63-73ba-49b4-9c5c-e530c4f48158",
            "go": "b8e94e80-0875-43cb-86a1-9f0066c4d8c9",
            "component_type": "CitizenAnimationHelper"
          },
          "JumpForce": 300,
          "RunSpeed": 300,
          "skinnedModelRenderer": {
            "_type": "component",
            "component_id": "1b5f98e7-6bd7-4e9d-b003-2923eaa0dd31",
            "go": "27f60420-6092-4841-81a3-c897f3c4d0a6",
            "component_type": "SkinnedModelRenderer"
          },
          "WalkSpeed": 120
        }
      ],
      "Children": [
        {
          "__guid": "491275b6-e278-481a-bb99-1ea9c5b6d809",
          "Name": "Eye",
          "Position": "0,0,61.40004",
          "Enabled": true,
          "NetworkMode": 2,
          "NetworkInterpolation": true
        },
        {
          "__guid": "27f60420-6092-4841-81a3-c897f3c4d0a6",
          "Name": "Body",
          "Position": "0,0,0",
          "Enabled": true,
          "NetworkMode": 2,
          "NetworkInterpolation": true,
          "Components": [
            {
              "__type": "Sandbox.SkinnedModelRenderer",
              "__guid": "1b5f98e7-6bd7-4e9d-b003-2923eaa0dd31",
              "BodyGroups": 341,
              "CreateBoneObjects": false,
              "Model": "models/citizen/citizen.vmdl",
              "RenderType": "On",
              "Tint": "1,1,1,1"
            }
          ]
        }
      ]
    },
    {
      "__guid": "3ee1c9f4-07be-4e0b-8b23-67bee2d8ec8a",
      "Name": "Camera",
      "Position": "-95.43496,-74.26933,136.763",
      "Enabled": true,
      "NetworkMode": 2,
      "NetworkInterpolation": true,
      "Components": [
        {
          "__type": "Sandbox.CameraComponent",
          "__guid": "dd6f498e-1b3a-49d0-b85a-040f2deb8399",
          "BackgroundColor": "0.33333,0.46275,0.52157,1",
          "ClearFlags": "All",
          "FieldOfView": 60,
          "IsMainCamera": true,
          "Orthographic": false,
          "OrthographicHeight": 1204,
          "Priority": 1,
          "RenderExcludeTags": "",
          "RenderTags": "",
          "TargetEye": "None",
          "Viewport": "0,0,1,1",
          "ZFar": 10000,
          "ZNear": 10
        },
        {
          "__type": "Sandbox.Bloom",
          "__guid": "32b39f1e-a5c6-4317-bc1d-58f06f7259a7",
          "BloomColor": {
            "color": [
              {
                "c": "1,1,1,1"
              },
              {
                "t": 1,
                "c": "1,1,1,1"
              }
            ],
            "alpha": []
          },
          "BloomCurve": [
            {
              "y": 0.5
            },
            {
              "x": 1,
              "y": 1
            }
          ],
          "Mode": "Additive",
          "Strength": 0.5,
          "Threshold": 0.5,
          "ThresholdWidth": 0.5
        },
        {
          "__type": "Sandbox.Tonemapping",
          "__guid": "1187148d-5af6-43d9-bbaa-9cf6e2b65066",
          "ExposureCompensation": 0,
          "MaximumExposure": 2,
          "MinimumExposure": 1,
          "Rate": 1
        },
        {
          "__type": "Sandbox.Sharpen",
          "__guid": "3a762ba8-b57c-4836-a886-715c28ebb532",
          "Scale": 0.2
        }
      ]
    },
    {
      "__guid": "21ae7244-e6b5-46f0-92fd-abe29ddcd06b",
      "Name": "Cube",
      "Position": "21.41682,74.1244,14.40159",
      "Rotation": "0.00000001819328,-0.00000000000000008235059,0.3052325,0.952278",
      "Scale": "0.5632889,0.5632889,0.5632889",
      "Enabled": true,
      "NetworkMode": 2,
      "NetworkInterpolation": true,
      "Components": [
        {
          "__type": "Sandbox.ModelRenderer",
          "__guid": "e6a79cb7-b11d-4363-89c5-e5c6b588f782",
          "BodyGroups": 18446744073709551615,
          "MaterialOverride": "materials/default.vmat",
          "Model": "models/dev/box.vmdl",
          "RenderType": "On",
          "Tint": "1,0,0.93333,1"
        },
        {
          "__type": "Sandbox.BoxCollider",
          "__guid": "337a34fc-fa95-4d54-b654-f9b276674cdd",
          "Center": "0,0,0",
          "IsTrigger": false,
          "Scale": "50,50,50",
          "Static": false
        },
        {
          "__type": "Sandbox.Rigidbody",
          "__guid": "a6b1b759-bc15-4037-9cfc-1709f8df2ba9",
          "AngularDamping": 0,
          "Gravity": true,
          "LinearDamping": 0,
          "Locking": {},
          "MassOverride": 0,
          "MotionEnabled": true,
          "RigidbodyFlags": 0,
          "StartAsleep": false
        }
      ]
    }
  ],
  "SceneProperties": {
    "FixedUpdateFrequency": 50,
    "MaxFixedUpdates": 5,
    "NetworkFrequency": 60,
    "NetworkInterpolation": true,
    "ThreadedAnimation": true,
    "TimeScale": 1,
    "UseFixedUpdate": true,
    "NavMesh": {
      "Enabled": false,
      "IncludeStaticBodies": true,
      "IncludeKeyframedBodies": true,
      "EditorAutoUpdate": true,
      "AgentHeight": 64,
      "AgentRadius": 16,
      "AgentStepSize": 18,
      "AgentMaxSlope": 40,
      "ExcludedBodies": "",
      "IncludedBodies": ""
    }
  },
  "Title": "minimal",
  "Description": "",
  "LastSaved": "2024-05-04T15:30:58.3327713\u002B02:00",
  "ResourceVersion": 1,
  "__version": 1,
  "__references": []
}