{
  "__guid": "9f832399-4887-46b0-8f21-2ee284f538e2",
  "GameObjects": [
    {
      "__guid": "bfc59c12-1ed2-4f91-8956-a95a315eac3c",
      "Name": "Sun",
      "Rotation": "-0.0729315,0.4822396,0.1305433,0.8631827",
      "Tags": "light_directional,light",
      "Enabled": true,
      "NetworkMode": 2,
      "NetworkInterpolation": true,
      "Components": [
        {
          "__type": "Sandbox.DirectionalLight",
          "__guid": "45f76bc2-9ba5-40f9-9f33-01574d803ca3",
          "FogMode": "Enabled",
          "FogStrength": 1,
          "LightColor": "0.94419,0.97767,1,1",
          "Shadows": true,
          "SkyColor": "0.2532,0.32006,0.35349,1"
        }
      ]
    },
    {
      "__guid": "00344a8c-fa5e-45ae-b12a-10bb781a1dc3",
      "Name": "2D Skybox",
      "Tags": "skybox",
      "Enabled": true,
      "NetworkMode": 2,
      "NetworkInterpolation": true,
      "Components": [
        {
          "__type": "Sandbox.SkyBox2D",
          "__guid": "fe9b8d4d-3e8c-4cb6-b469-8e192d79e615",
          "SkyMaterial": "materials/error.vmat",
          "Tint": "1,1,1,1"
        },
        {
          "__type": "Sandbox.EnvmapProbe",
          "__guid": "8bb3dd31-c1ba-47e8-948a-635e45feed3d",
          "Texture": "textures/cubemaps/default2.vtex",
          "Bounds": {
            "Mins": "-512,-512,-512",
            "Maxs": "512,512,512"
          },
          "DelayBetweenUpdates": 0.1,
          "Feathering": 0.02,
          "FrameInterval": 5,
          "MaxDistance": 512,
          "Projection": "Sphere",
          "RenderDynamically": false,
          "TintColor": "1,1,1,1",
          "UpdateStrategy": "OnEnabled",
          "ZFar": 4096,
          "ZNear": 16
        }
      ]
    },
    {
      "__guid": "6ad70641-3c6c-4402-9c85-9a4969af4764",
      "Name": "Plane",
      "Position": "20.09176,0,0",
      "Scale": "5,5,5",
      "Enabled": true,
      "NetworkMode": 2,
      "NetworkInterpolation": true,
      "Components": [
        {
          "__type": "Sandbox.ModelRenderer",
          "__guid": "8093fe04-ad0b-4b58-8aa4-d9557a27501b",
          "BodyGroups": 18446744073709551615,
          "MaterialOverride": "materials/default.vmat",
          "Model": "models/dev/plane.vmdl",
          "RenderType": "On",
          "Tint": "0.39546,0.51163,0.27128,1"
        },
        {
          "__type": "Sandbox.BoxCollider",
          "__guid": "7f3d3b6e-90bc-4e8a-a162-f2a6cb9b3cb1",
          "Center": "0,0,-5",
          "IsTrigger": false,
          "Scale": "100,100,10",
          "Static": false
        }
      ]
    },
    {
      "__guid": "3c2490ef-54a0-49bb-8f13-490e40aa51d1",
      "Name": "Cube",
      "Position": "58.26803,-9.330567,14.40159",
      "Rotation": "0.00000001008123,0.00000001514477,0.9618471,0.2735874",
      "Scale": "0.5632889,0.5632889,0.5632889",
      "Enabled": true,
      "NetworkMode": 2,
      "NetworkInterpolation": true,
      "Components": [
        {
          "__type": "Sandbox.ModelRenderer",
          "__guid": "79459e68-ea3e-44b9-ae6e-ee6e2e2f80c2",
          "BodyGroups": 18446744073709551615,
          "MaterialOverride": "materials/default.vmat",
          "Model": "models/dev/box.vmdl",
          "RenderType": "On",
          "Tint": "1,0,0.93333,1"
        },
        {
          "__type": "Sandbox.BoxCollider",
          "__guid": "809389c9-2c88-4b0d-b240-820d0cb4441f",
          "Center": "0,0,0",
          "IsTrigger": false,
          "Scale": "50,50,50",
          "Static": false
        },
        {
          "__type": "Sandbox.Rigidbody",
          "__guid": "e4f83ac7-3f4e-43d6-9c4b-03f7bd960678",
          "AngularDamping": 0,
          "Gravity": true,
          "LinearDamping": 0,
          "Locking": {},
          "MassOverride": 0,
          "MotionEnabled": true,
          "RigidbodyFlags": 0,
          "StartAsleep": false
        }
      ],
      "Children": [
        {
          "__guid": "523e3e8f-a4ec-4ec1-af9a-d86ffc9c17e1",
          "Name": "Cube (1)",
          "Position": "0.0003116614,-137.9211,12.68201",
          "Enabled": true,
          "NetworkMode": 2,
          "NetworkInterpolation": true,
          "Components": [
            {
              "__type": "Sandbox.ModelRenderer",
              "__guid": "86a4416e-79f4-49ab-b2f3-5446714f2bad",
              "BodyGroups": 18446744073709551615,
              "MaterialOverride": "materials/default.vmat",
              "Model": "models/dev/box.vmdl",
              "RenderType": "On",
              "Tint": "1,0,0.93333,1"
            },
            {
              "__type": "Sandbox.BoxCollider",
              "__guid": "12fe41e3-b4ba-4308-a245-3c5665612678",
              "Center": "0,0,0",
              "IsTrigger": true,
              "Scale": "50,50,50",
              "Static": false
            },
            {
              "__type": "Sandbox.Rigidbody",
              "__guid": "55a6babd-bda3-402a-8252-e47d172f2a6a",
              "AngularDamping": 0,
              "Gravity": false,
              "LinearDamping": 0,
              "Locking": {},
              "MassOverride": 0,
              "MotionEnabled": true,
              "RigidbodyFlags": 0,
              "StartAsleep": false
            },
            {
              "__type": "RotateAroundCenter",
              "__guid": "48200c86-9b07-4ec6-9fed-49dbb1492b81",
              "parent": {
                "_type": "gameobject",
                "go": "3c2490ef-54a0-49bb-8f13-490e40aa51d1"
              }
            }
          ]
        }
      ]
    },
    {
      "__guid": "3ee1c9f4-07be-4e0b-8b23-67bee2d8ec8a",
      "Name": "Camera",
      "Position": "-267.452,-379.653,297.7903",
      "Rotation": "-0.1448582,0.2860239,0.4279631,0.8450171",
      "Enabled": true,
      "NetworkMode": 2,
      "NetworkInterpolation": true,
      "Components": [
        {
          "__type": "Sandbox.CameraComponent",
          "__guid": "dd6f498e-1b3a-49d0-b85a-040f2deb8399",
          "BackgroundColor": "0.33333,0.46275,0.52157,1",
          "ClearFlags": "All",
          "FieldOfView": 60,
          "IsMainCamera": true,
          "Orthographic": false,
          "OrthographicHeight": 1204,
          "Priority": 1,
          "RenderExcludeTags": "",
          "RenderTags": "",
          "TargetEye": "None",
          "Viewport": "0,0,1,1",
          "ZFar": 10000,
          "ZNear": 10
        },
        {
          "__type": "Sandbox.Bloom",
          "__guid": "32b39f1e-a5c6-4317-bc1d-58f06f7259a7",
          "BloomColor": {
            "color": [
              {
                "c": "1,1,1,1"
              },
              {
                "t": 1,
                "c": "1,1,1,1"
              }
            ],
            "alpha": []
          },
          "BloomCurve": [
            {
              "y": 0.5
            },
            {
              "x": 1,
              "y": 1
            }
          ],
          "Mode": "Additive",
          "Strength": 0.5,
          "Threshold": 0.5,
          "ThresholdWidth": 0.5
        },
        {
          "__type": "Sandbox.Tonemapping",
          "__guid": "1187148d-5af6-43d9-bbaa-9cf6e2b65066",
          "ExposureCompensation": 0,
          "MaximumExposure": 2,
          "MinimumExposure": 1,
          "Rate": 1
        },
        {
          "__type": "Sandbox.Sharpen",
          "__guid": "3a762ba8-b57c-4836-a886-715c28ebb532",
          "Scale": 0.2
        }
      ]
    }
  ],
  "SceneProperties": {
    "FixedUpdateFrequency": 50,
    "MaxFixedUpdates": 5,
    "NetworkFrequency": 60,
    "NetworkInterpolation": true,
    "ThreadedAnimation": true,
    "TimeScale": 1,
    "UseFixedUpdate": true,
    "NavMesh": {
      "Enabled": false,
      "IncludeStaticBodies": true,
      "IncludeKeyframedBodies": true,
      "EditorAutoUpdate": true,
      "AgentHeight": 64,
      "AgentRadius": 16,
      "AgentStepSize": 18,
      "AgentMaxSlope": 40,
      "ExcludedBodies": "",
      "IncludedBodies": ""
    }
  },
  "Title": "minimal",
  "Description": "",
  "LastSaved": "2024-05-04T21:12:44.3737568\u002B02:00",
  "ResourceVersion": 1,
  "__version": 1,
  "__references": []
}